2021-03-23 14:23:05 13376 [Note] Plugin 'FEDERATED' is disabled.
2021-03-23 14:23:05 13376 [Note] InnoDB: The InnoDB memory heap is disabled
2021-03-23 14:23:05 13376 [Note] InnoDB: Mutexes and rw_locks use Windows interlocked functions
2021-03-23 14:23:05 13376 [Note] InnoDB: Compressed tables use zlib 1.2.3
2021-03-23 14:23:05 13376 [Note] InnoDB: Not using CPU crc32 instructions
2021-03-23 14:23:05 13376 [Note] InnoDB: Initializing buffer pool, size = 128.0M
2021-03-23 14:23:05 13376 [Note] InnoDB: Completed initialization of buffer pool
2021-03-23 14:23:05 13376 [Note] InnoDB: Setting log file Z:\USBWebserver v8.6\mysql\data\ib_logfile101 size to 5 MB
2021-03-23 14:23:06 13376 [Note] InnoDB: Setting log file Z:\USBWebserver v8.6\mysql\data\ib_logfile1 size to 5 MB
2021-03-23 14:23:06 13376 [Note] InnoDB: Renaming log file Z:\USBWebserver v8.6\mysql\data\ib_logfile101 to Z:\USBWebserver v8.6\mysql\data\ib_logfile0
2021-03-23 14:23:06 13376 [Warning] InnoDB: New log files created, LSN=1626134
2021-03-23 14:23:06 13376 [Note] InnoDB: Highest supported file format is Barracuda.
2021-03-23 14:23:06 13376 [Note] InnoDB: 128 rollback segment(s) are active.
2021-03-23 14:23:06 13376 [Note] InnoDB: Waiting for purge to start
2021-03-23 14:23:06 13376 [Note] InnoDB: 5.6.13 started; log sequence number 1626636
2021-03-23 14:23:06 13376 [Warning] No existing UUID has been found, so we assume that this is the first time that this server has been started. Generating a new UUID: d052186e-8c04-11eb-be8f-2cf05d8049ec.
2021-03-23 14:23:06 13376 [Note] Server hostname (bind-address): '*'; port: 3307
2021-03-23 14:23:06 13376 [Note] IPv6 is available.
2021-03-23 14:23:06 13376 [Note]   - '::' resolves to '::';
2021-03-23 14:23:06 13376 [Note] Server socket created on IP: '::'.
2021-03-23 14:23:07 13376 [Note] Event Scheduler: Loaded 0 events
2021-03-23 14:23:07 13376 [Note] Z:\USBWebserver v8.6/mysql/bin/mysqld_usbwv8.exe: ready for connections.
Version: '5.6.13'  socket: ''  port: 3307  MySQL Community Server (GPL)
